graph 666{
0  [Label = "0 (0.00)"]
1  [Label = "1 (0.00)"]
2  [Label = "2 (0.00)"]
3  [Label = "3 (0.00)"]
4  [Label = "4 (0.00)"]
5  [Label = "5 (0.00)"]
6  [Label = "6 (0.00)"]
7  [Label = "7 (0.00)"]
8  [Label = "8 (0.00)"]
9  [Label = "9 (0.00)"]
10  [Label = "10 (0.00)"]
11  [Label = "11 (0.00)"]
12  [Label = "12 (0.00)"]
13  [Label = "13 (0.00)"]
14  [Label = "14 (0.00)"]
15  [Label = "15 (0.00)"]
16  [Label = "16 (0.00)"]
17  [Label = "17 (0.00)"]
18  [Label = "18 (0.00)"]
19  [Label = "19 (0.00)"]
20  [Label = "20 (0.00)"]
21  [Label = "21 (0.00)"]
22  [Label = "22 (0.00)"]
23  [Label = "23 (0.00)"]
24  [Label = "24 (0.00)"]
25  [Label = "25 (0.00)"]
26  [Label = "26 (0.00)"]
27  [Label = "27 (0.00)"]
28  [Label = "28 (0.00)"]
29  [Label = "29 (0.00)"]
30  [Label = "30 (0.00)"]
31  [Label = "31 (0.00)"]
32  [Label = "32 (0.00)"]
33  [Label = "33 (0.00)"]
34  [Label = "34 (0.00)"]
35  [Label = "35 (0.00)"]
36  [Label = "36 (0.00)"]
37  [Label = "37 (0.00)"]
38  [Label = "38 (0.00)"]
39  [Label = "39 (0.00)"]
40  [Label = "40 (0.00)"]
41  [Label = "41 (0.00)"]
42  [Label = "42 (0.00)"]
43  [Label = "43 (0.00)"]
44  [Label = "44 (0.00)"]
45  [Label = "45 (0.00)"]
46  [Label = "46 (0.00)"]
47  [Label = "47 (0.00)"]
48  [Label = "48 (0.00)"]
49  [Label = "49 (0.00)"]
50  [Label = "50 (0.00)"]
51  [Label = "51 (0.00)"]
52  [Label = "52 (0.00)"]
53  [Label = "53 (0.00)"]
54  [Label = "54 (0.00)"]
55  [Label = "55 (0.00)"]
56  [Label = "56 (0.00)"]
57  [Label = "57 (0.00)"]
58  [Label = "58 (0.00)"]
59  [Label = "59 (0.00)"]
60  [Label = "60 (0.00)"]
61  [Label = "61 (0.00)"]
62  [Label = "62 (0.00)"]
63  [Label = "63 (0.00)"]
64  [Label = "64 (0.00)"]
65  [Label = "65 (0.00)"]
66  [Label = "66 (0.00)"]
67  [Label = "67 (0.00)"]
68  [Label = "68 (0.00)"]
69  [Label = "69 (0.00)"]
70  [Label = "70 (0.00)"]
71  [Label = "71 (0.00)"]
72  [Label = "72 (0.00)"]
73  [Label = "73 (0.00)"]
74  [Label = "74 (0.00)"]
75  [Label = "75 (0.00)"]
76  [Label = "76 (0.00)"]
77  [Label = "77 (0.00)"]
78  [Label = "78 (0.00)"]
79  [Label = "79 (0.00)"]
80  [Label = "80 (0.00)"]
81  [Label = "81 (0.00)"]
82  [Label = "82 (0.00)"]
83  [Label = "83 (0.00)"]
84  [Label = "84 (0.00)"]
85  [Label = "85 (0.00)"]
86  [Label = "86 (0.00)"]
87  [Label = "87 (0.00)"]
88  [Label = "88 (0.00)"]
89  [Label = "89 (0.00)"]
90  [Label = "90 (0.00)"]
91  [Label = "91 (0.00)"]
92  [Label = "92 (0.00)"]
93  [Label = "93 (0.00)"]
94  [Label = "94 (0.00)"]
95  [Label = "95 (0.00)"]
96  [Label = "96 (0.00)"]
97  [Label = "97 (0.00)"]
98  [Label = "98 (0.00)"]
99  [Label = "99 (0.00)"]

0--7  [Label = "0.00"]
0--8  [Label = "0.00"]
0--11  [Label = "0.00"]
0--14  [Label = "0.00"]
0--15  [Label = "0.00"]
0--18  [Label = "0.00"]
0--20  [Label = "0.00"]
0--23  [Label = "0.00"]
0--29  [Label = "0.00"]
0--31  [Label = "0.00"]
0--33  [Label = "0.00"]
0--35  [Label = "0.00"]
0--40  [Label = "0.00"]
0--41  [Label = "0.00"]
0--42  [Label = "0.00"]
0--45  [Label = "0.00"]
0--52  [Label = "0.00"]
0--54  [Label = "0.00"]
0--56  [Label = "0.00"]
0--60  [Label = "0.00"]
0--63  [Label = "0.00"]
0--68  [Label = "0.00"]
0--69  [Label = "0.00"]
0--88  [Label = "0.00"]
0--91  [Label = "0.00"]
0--93  [Label = "0.00"]
0--94  [Label = "0.00"]
0--97  [Label = "0.00"]
1--12  [Label = "0.00"]
1--16  [Label = "0.00"]
1--25  [Label = "0.00"]
1--28  [Label = "0.00"]
1--34  [Label = "0.00"]
1--39  [Label = "0.00"]
1--52  [Label = "0.00"]
1--59  [Label = "0.00"]
1--63  [Label = "0.00"]
1--71  [Label = "0.00"]
1--75  [Label = "0.00"]
1--78  [Label = "0.00"]
1--79  [Label = "0.00"]
1--83  [Label = "0.00"]
1--86  [Label = "0.00"]
2--6  [Label = "0.00"]
2--9  [Label = "0.00"]
2--13  [Label = "0.00"]
2--19  [Label = "0.00"]
2--22  [Label = "0.00"]
2--32  [Label = "0.00"]
2--36  [Label = "0.00"]
2--44  [Label = "0.00"]
2--47  [Label = "0.00"]
2--65  [Label = "0.00"]
2--67  [Label = "0.00"]
2--72  [Label = "0.00"]
2--82  [Label = "0.00"]
2--92  [Label = "0.00"]
2--96  [Label = "0.00"]
2--99  [Label = "0.00"]
3--5  [Label = "0.00"]
3--7  [Label = "0.00"]
3--11  [Label = "0.00"]
3--14  [Label = "0.00"]
3--17  [Label = "0.00"]
3--24  [Label = "0.00"]
3--26  [Label = "0.00"]
3--27  [Label = "0.00"]
3--37  [Label = "0.00"]
3--41  [Label = "0.00"]
3--45  [Label = "0.00"]
3--48  [Label = "0.00"]
3--49  [Label = "0.00"]
3--51  [Label = "0.00"]
3--58  [Label = "0.00"]
3--60  [Label = "0.00"]
3--69  [Label = "0.00"]
3--74  [Label = "0.00"]
3--77  [Label = "0.00"]
3--85  [Label = "0.00"]
3--90  [Label = "0.00"]
4--9  [Label = "0.00"]
4--13  [Label = "0.00"]
4--21  [Label = "0.00"]
4--28  [Label = "0.00"]
4--32  [Label = "0.00"]
4--36  [Label = "0.00"]
4--43  [Label = "0.00"]
4--57  [Label = "0.00"]
4--64  [Label = "0.00"]
4--67  [Label = "0.00"]
4--78  [Label = "0.00"]
4--79  [Label = "0.00"]
4--80  [Label = "0.00"]
4--81  [Label = "0.00"]
4--82  [Label = "0.00"]
4--87  [Label = "0.00"]
4--89  [Label = "0.00"]
4--96  [Label = "0.00"]
5--10  [Label = "0.00"]
5--17  [Label = "0.00"]
5--24  [Label = "0.00"]
5--26  [Label = "0.00"]
5--27  [Label = "0.00"]
5--37  [Label = "0.00"]
5--38  [Label = "0.00"]
5--48  [Label = "0.00"]
5--51  [Label = "0.00"]
5--61  [Label = "0.00"]
5--66  [Label = "0.00"]
5--73  [Label = "0.00"]
5--74  [Label = "0.00"]
5--77  [Label = "0.00"]
5--85  [Label = "0.00"]
5--90  [Label = "0.00"]
6--9  [Label = "0.00"]
6--19  [Label = "0.00"]
6--22  [Label = "0.00"]
6--38  [Label = "0.00"]
6--44  [Label = "0.00"]
6--47  [Label = "0.00"]
6--61  [Label = "0.00"]
6--65  [Label = "0.00"]
6--66  [Label = "0.00"]
6--72  [Label = "0.00"]
6--73  [Label = "0.00"]
6--92  [Label = "0.00"]
6--99  [Label = "0.00"]
7--11  [Label = "0.00"]
7--14  [Label = "0.00"]
7--29  [Label = "0.00"]
7--37  [Label = "0.00"]
7--41  [Label = "0.00"]
7--42  [Label = "0.00"]
7--45  [Label = "0.00"]
7--46  [Label = "0.00"]
7--48  [Label = "0.00"]
7--49  [Label = "0.00"]
7--50  [Label = "0.00"]
7--51  [Label = "0.00"]
7--55  [Label = "0.00"]
7--58  [Label = "0.00"]
7--60  [Label = "0.00"]
7--69  [Label = "0.00"]
7--70  [Label = "0.00"]
7--74  [Label = "0.00"]
7--77  [Label = "0.00"]
7--90  [Label = "0.00"]
7--94  [Label = "0.00"]
7--97  [Label = "0.00"]
7--98  [Label = "0.00"]
8--11  [Label = "0.00"]
8--14  [Label = "0.00"]
8--15  [Label = "0.00"]
8--18  [Label = "0.00"]
8--20  [Label = "0.00"]
8--23  [Label = "0.00"]
8--25  [Label = "0.00"]
8--28  [Label = "0.00"]
8--29  [Label = "0.00"]
8--31  [Label = "0.00"]
8--33  [Label = "0.00"]
8--35  [Label = "0.00"]
8--40  [Label = "0.00"]
8--42  [Label = "0.00"]
8--45  [Label = "0.00"]
8--52  [Label = "0.00"]
8--56  [Label = "0.00"]
8--59  [Label = "0.00"]
8--60  [Label = "0.00"]
8--63  [Label = "0.00"]
8--69  [Label = "0.00"]
8--83  [Label = "0.00"]
8--88  [Label = "0.00"]
8--91  [Label = "0.00"]
8--93  [Label = "0.00"]
8--94  [Label = "0.00"]
9--13  [Label = "0.00"]
9--19  [Label = "0.00"]
9--21  [Label = "0.00"]
9--22  [Label = "0.00"]
9--32  [Label = "0.00"]
9--36  [Label = "0.00"]
9--43  [Label = "0.00"]
9--44  [Label = "0.00"]
9--47  [Label = "0.00"]
9--57  [Label = "0.00"]
9--64  [Label = "0.00"]
9--67  [Label = "0.00"]
9--72  [Label = "0.00"]
9--80  [Label = "0.00"]
9--81  [Label = "0.00"]
9--82  [Label = "0.00"]
9--87  [Label = "0.00"]
9--89  [Label = "0.00"]
9--92  [Label = "0.00"]
9--96  [Label = "0.00"]
10--17  [Label = "0.00"]
10--24  [Label = "0.00"]
10--26  [Label = "0.00"]
10--27  [Label = "0.00"]
10--38  [Label = "0.00"]
10--61  [Label = "0.00"]
10--65  [Label = "0.00"]
10--66  [Label = "0.00"]
10--73  [Label = "0.00"]
10--99  [Label = "0.00"]
11--14  [Label = "0.00"]
11--15  [Label = "0.00"]
11--18  [Label = "0.00"]
11--20  [Label = "0.00"]
11--21  [Label = "0.00"]
11--29  [Label = "0.00"]
11--31  [Label = "0.00"]
11--33  [Label = "0.00"]
11--37  [Label = "0.00"]
11--40  [Label = "0.00"]
11--41  [Label = "0.00"]
11--45  [Label = "0.00"]
11--48  [Label = "0.00"]
11--49  [Label = "0.00"]
11--56  [Label = "0.00"]
11--60  [Label = "0.00"]
11--63  [Label = "0.00"]
11--69  [Label = "0.00"]
11--74  [Label = "0.00"]
11--77  [Label = "0.00"]
11--89  [Label = "0.00"]
11--94  [Label = "0.00"]
11--97  [Label = "0.00"]
12--16  [Label = "0.00"]
12--25  [Label = "0.00"]
12--28  [Label = "0.00"]
12--34  [Label = "0.00"]
12--39  [Label = "0.00"]
12--52  [Label = "0.00"]
12--59  [Label = "0.00"]
12--63  [Label = "0.00"]
12--71  [Label = "0.00"]
12--75  [Label = "0.00"]
12--78  [Label = "0.00"]
12--79  [Label = "0.00"]
12--83  [Label = "0.00"]
12--86  [Label = "0.00"]
13--19  [Label = "0.00"]
13--21  [Label = "0.00"]
13--32  [Label = "0.00"]
13--36  [Label = "0.00"]
13--43  [Label = "0.00"]
13--44  [Label = "0.00"]
13--47  [Label = "0.00"]
13--57  [Label = "0.00"]
13--64  [Label = "0.00"]
13--67  [Label = "0.00"]
13--80  [Label = "0.00"]
13--81  [Label = "0.00"]
13--82  [Label = "0.00"]
13--87  [Label = "0.00"]
13--89  [Label = "0.00"]
13--96  [Label = "0.00"]
14--20  [Label = "0.00"]
14--21  [Label = "0.00"]
14--29  [Label = "0.00"]
14--31  [Label = "0.00"]
14--33  [Label = "0.00"]
14--37  [Label = "0.00"]
14--40  [Label = "0.00"]
14--41  [Label = "0.00"]
14--45  [Label = "0.00"]
14--48  [Label = "0.00"]
14--49  [Label = "0.00"]
14--51  [Label = "0.00"]
14--56  [Label = "0.00"]
14--58  [Label = "0.00"]
14--60  [Label = "0.00"]
14--63  [Label = "0.00"]
14--69  [Label = "0.00"]
14--74  [Label = "0.00"]
14--77  [Label = "0.00"]
14--94  [Label = "0.00"]
14--97  [Label = "0.00"]
15--18  [Label = "0.00"]
15--20  [Label = "0.00"]
15--23  [Label = "0.00"]
15--29  [Label = "0.00"]
15--30  [Label = "0.00"]
15--31  [Label = "0.00"]
15--35  [Label = "0.00"]
15--40  [Label = "0.00"]
15--42  [Label = "0.00"]
15--45  [Label = "0.00"]
15--52  [Label = "0.00"]
15--53  [Label = "0.00"]
15--54  [Label = "0.00"]
15--62  [Label = "0.00"]
15--63  [Label = "0.00"]
15--68  [Label = "0.00"]
15--69  [Label = "0.00"]
15--88  [Label = "0.00"]
15--91  [Label = "0.00"]
15--93  [Label = "0.00"]
15--94  [Label = "0.00"]
15--97  [Label = "0.00"]
16--34  [Label = "0.00"]
16--39  [Label = "0.00"]
16--71  [Label = "0.00"]
16--75  [Label = "0.00"]
16--79  [Label = "0.00"]
16--83  [Label = "0.00"]
17--24  [Label = "0.00"]
17--26  [Label = "0.00"]
17--27  [Label = "0.00"]
17--38  [Label = "0.00"]
17--48  [Label = "0.00"]
17--61  [Label = "0.00"]
17--65  [Label = "0.00"]
17--66  [Label = "0.00"]
17--73  [Label = "0.00"]
17--74  [Label = "0.00"]
17--99  [Label = "0.00"]
18--20  [Label = "0.00"]
18--23  [Label = "0.00"]
18--25  [Label = "0.00"]
18--28  [Label = "0.00"]
18--29  [Label = "0.00"]
18--31  [Label = "0.00"]
18--35  [Label = "0.00"]
18--40  [Label = "0.00"]
18--45  [Label = "0.00"]
18--52  [Label = "0.00"]
18--56  [Label = "0.00"]
18--59  [Label = "0.00"]
18--63  [Label = "0.00"]
18--71  [Label = "0.00"]
18--83  [Label = "0.00"]
18--86  [Label = "0.00"]
18--88  [Label = "0.00"]
18--91  [Label = "0.00"]
18--93  [Label = "0.00"]
18--94  [Label = "0.00"]
19--21  [Label = "0.00"]
19--22  [Label = "0.00"]
19--32  [Label = "0.00"]
19--36  [Label = "0.00"]
19--38  [Label = "0.00"]
19--43  [Label = "0.00"]
19--44  [Label = "0.00"]
19--47  [Label = "0.00"]
19--61  [Label = "0.00"]
19--64  [Label = "0.00"]
19--65  [Label = "0.00"]
19--67  [Label = "0.00"]
19--73  [Label = "0.00"]
19--82  [Label = "0.00"]
19--87  [Label = "0.00"]
19--89  [Label = "0.00"]
19--99  [Label = "0.00"]
20--23  [Label = "0.00"]
20--25  [Label = "0.00"]
20--28  [Label = "0.00"]
20--29  [Label = "0.00"]
20--31  [Label = "0.00"]
20--33  [Label = "0.00"]
20--35  [Label = "0.00"]
20--40  [Label = "0.00"]
20--45  [Label = "0.00"]
20--52  [Label = "0.00"]
20--56  [Label = "0.00"]
20--59  [Label = "0.00"]
20--60  [Label = "0.00"]
20--63  [Label = "0.00"]
20--69  [Label = "0.00"]
20--71  [Label = "0.00"]
20--78  [Label = "0.00"]
20--83  [Label = "0.00"]
20--86  [Label = "0.00"]
20--88  [Label = "0.00"]
20--93  [Label = "0.00"]
20--94  [Label = "0.00"]
21--28  [Label = "0.00"]
21--31  [Label = "0.00"]
21--32  [Label = "0.00"]
21--33  [Label = "0.00"]
21--36  [Label = "0.00"]
21--40  [Label = "0.00"]
21--43  [Label = "0.00"]
21--45  [Label = "0.00"]
21--49  [Label = "0.00"]
21--56  [Label = "0.00"]
21--57  [Label = "0.00"]
21--60  [Label = "0.00"]
21--63  [Label = "0.00"]
21--64  [Label = "0.00"]
21--67  [Label = "0.00"]
21--69  [Label = "0.00"]
21--78  [Label = "0.00"]
21--80  [Label = "0.00"]
21--81  [Label = "0.00"]
21--82  [Label = "0.00"]
21--87  [Label = "0.00"]
21--89  [Label = "0.00"]
21--96  [Label = "0.00"]
22--44  [Label = "0.00"]
22--47  [Label = "0.00"]
22--65  [Label = "0.00"]
22--72  [Label = "0.00"]
22--92  [Label = "0.00"]
22--99  [Label = "0.00"]
23--29  [Label = "0.00"]
23--30  [Label = "0.00"]
23--31  [Label = "0.00"]
23--35  [Label = "0.00"]
23--42  [Label = "0.00"]
23--45  [Label = "0.00"]
23--52  [Label = "0.00"]
23--53  [Label = "0.00"]
23--54  [Label = "0.00"]
23--62  [Label = "0.00"]
23--68  [Label = "0.00"]
23--88  [Label = "0.00"]
23--91  [Label = "0.00"]
23--93  [Label = "0.00"]
23--94  [Label = "0.00"]
23--95  [Label = "0.00"]
23--97  [Label = "0.00"]
24--26  [Label = "0.00"]
24--27  [Label = "0.00"]
24--38  [Label = "0.00"]
24--48  [Label = "0.00"]
24--51  [Label = "0.00"]
24--61  [Label = "0.00"]
24--66  [Label = "0.00"]
24--73  [Label = "0.00"]
24--74  [Label = "0.00"]
24--85  [Label = "0.00"]
24--90  [Label = "0.00"]
25--28  [Label = "0.00"]
25--34  [Label = "0.00"]
25--35  [Label = "0.00"]
25--52  [Label = "0.00"]
25--59  [Label = "0.00"]
25--63  [Label = "0.00"]
25--71  [Label = "0.00"]
25--75  [Label = "0.00"]
25--78  [Label = "0.00"]
25--83  [Label = "0.00"]
25--86  [Label = "0.00"]
25--93  [Label = "0.00"]
26--27  [Label = "0.00"]
26--37  [Label = "0.00"]
26--38  [Label = "0.00"]
26--48  [Label = "0.00"]
26--51  [Label = "0.00"]
26--61  [Label = "0.00"]
26--66  [Label = "0.00"]
26--73  [Label = "0.00"]
26--74  [Label = "0.00"]
26--77  [Label = "0.00"]
26--85  [Label = "0.00"]
26--90  [Label = "0.00"]
27--66  [Label = "0.00"]
27--85  [Label = "0.00"]
27--90  [Label = "0.00"]
28--31  [Label = "0.00"]
28--33  [Label = "0.00"]
28--39  [Label = "0.00"]
28--40  [Label = "0.00"]
28--43  [Label = "0.00"]
28--56  [Label = "0.00"]
28--57  [Label = "0.00"]
28--59  [Label = "0.00"]
28--63  [Label = "0.00"]
28--64  [Label = "0.00"]
28--71  [Label = "0.00"]
28--75  [Label = "0.00"]
28--78  [Label = "0.00"]
28--79  [Label = "0.00"]
28--80  [Label = "0.00"]
28--81  [Label = "0.00"]
28--83  [Label = "0.00"]
28--86  [Label = "0.00"]
28--87  [Label = "0.00"]
28--89  [Label = "0.00"]
29--30  [Label = "0.00"]
29--31  [Label = "0.00"]
29--33  [Label = "0.00"]
29--35  [Label = "0.00"]
29--37  [Label = "0.00"]
29--40  [Label = "0.00"]
29--41  [Label = "0.00"]
29--42  [Label = "0.00"]
29--45  [Label = "0.00"]
29--46  [Label = "0.00"]
29--49  [Label = "0.00"]
29--50  [Label = "0.00"]
29--55  [Label = "0.00"]
29--56  [Label = "0.00"]
29--58  [Label = "0.00"]
29--60  [Label = "0.00"]
29--68  [Label = "0.00"]
29--69  [Label = "0.00"]
29--70  [Label = "0.00"]
29--77  [Label = "0.00"]
29--88  [Label = "0.00"]
29--91  [Label = "0.00"]
29--93  [Label = "0.00"]
29--94  [Label = "0.00"]
29--95  [Label = "0.00"]
29--97  [Label = "0.00"]
30--42  [Label = "0.00"]
30--46  [Label = "0.00"]
30--50  [Label = "0.00"]
30--53  [Label = "0.00"]
30--54  [Label = "0.00"]
30--62  [Label = "0.00"]
30--68  [Label = "0.00"]
30--70  [Label = "0.00"]
30--76  [Label = "0.00"]
30--84  [Label = "0.00"]
30--88  [Label = "0.00"]
30--91  [Label = "0.00"]
30--95  [Label = "0.00"]
30--97  [Label = "0.00"]
31--33  [Label = "0.00"]
31--35  [Label = "0.00"]
31--40  [Label = "0.00"]
31--45  [Label = "0.00"]
31--49  [Label = "0.00"]
31--56  [Label = "0.00"]
31--59  [Label = "0.00"]
31--60  [Label = "0.00"]
31--63  [Label = "0.00"]
31--69  [Label = "0.00"]
31--77  [Label = "0.00"]
31--78  [Label = "0.00"]
31--87  [Label = "0.00"]
31--89  [Label = "0.00"]
31--93  [Label = "0.00"]
31--94  [Label = "0.00"]
32--36  [Label = "0.00"]
32--43  [Label = "0.00"]
32--44  [Label = "0.00"]
32--57  [Label = "0.00"]
32--64  [Label = "0.00"]
32--67  [Label = "0.00"]
32--80  [Label = "0.00"]
32--81  [Label = "0.00"]
32--82  [Label = "0.00"]
32--87  [Label = "0.00"]
32--92  [Label = "0.00"]
32--96  [Label = "0.00"]
33--36  [Label = "0.00"]
33--40  [Label = "0.00"]
33--45  [Label = "0.00"]
33--49  [Label = "0.00"]
33--56  [Label = "0.00"]
33--57  [Label = "0.00"]
33--60  [Label = "0.00"]
33--63  [Label = "0.00"]
33--64  [Label = "0.00"]
33--69  [Label = "0.00"]
33--74  [Label = "0.00"]
33--77  [Label = "0.00"]
33--82  [Label = "0.00"]
33--87  [Label = "0.00"]
33--89  [Label = "0.00"]
33--94  [Label = "0.00"]
34--39  [Label = "0.00"]
34--59  [Label = "0.00"]
34--71  [Label = "0.00"]
34--75  [Label = "0.00"]
34--78  [Label = "0.00"]
34--79  [Label = "0.00"]
34--83  [Label = "0.00"]
34--86  [Label = "0.00"]
35--42  [Label = "0.00"]
35--52  [Label = "0.00"]
35--54  [Label = "0.00"]
35--59  [Label = "0.00"]
35--62  [Label = "0.00"]
35--63  [Label = "0.00"]
35--68  [Label = "0.00"]
35--88  [Label = "0.00"]
35--91  [Label = "0.00"]
35--93  [Label = "0.00"]
35--94  [Label = "0.00"]
36--40  [Label = "0.00"]
36--43  [Label = "0.00"]
36--44  [Label = "0.00"]
36--49  [Label = "0.00"]
36--56  [Label = "0.00"]
36--57  [Label = "0.00"]
36--60  [Label = "0.00"]
36--64  [Label = "0.00"]
36--67  [Label = "0.00"]
36--73  [Label = "0.00"]
36--80  [Label = "0.00"]
36--81  [Label = "0.00"]
36--82  [Label = "0.00"]
36--87  [Label = "0.00"]
36--89  [Label = "0.00"]
36--96  [Label = "0.00"]
37--41  [Label = "0.00"]
37--45  [Label = "0.00"]
37--46  [Label = "0.00"]
37--48  [Label = "0.00"]
37--49  [Label = "0.00"]
37--50  [Label = "0.00"]
37--51  [Label = "0.00"]
37--55  [Label = "0.00"]
37--58  [Label = "0.00"]
37--60  [Label = "0.00"]
37--69  [Label = "0.00"]
37--74  [Label = "0.00"]
37--77  [Label = "0.00"]
37--85  [Label = "0.00"]
37--90  [Label = "0.00"]
37--97  [Label = "0.00"]
37--98  [Label = "0.00"]
38--44  [Label = "0.00"]
38--47  [Label = "0.00"]
38--61  [Label = "0.00"]
38--65  [Label = "0.00"]
38--66  [Label = "0.00"]
38--73  [Label = "0.00"]
38--99  [Label = "0.00"]
39--59  [Label = "0.00"]
39--71  [Label = "0.00"]
39--75  [Label = "0.00"]
39--78  [Label = "0.00"]
39--79  [Label = "0.00"]
39--83  [Label = "0.00"]
39--86  [Label = "0.00"]
40--45  [Label = "0.00"]
40--49  [Label = "0.00"]
40--56  [Label = "0.00"]
40--57  [Label = "0.00"]
40--59  [Label = "0.00"]
40--60  [Label = "0.00"]
40--63  [Label = "0.00"]
40--64  [Label = "0.00"]
40--69  [Label = "0.00"]
40--77  [Label = "0.00"]
40--78  [Label = "0.00"]
40--80  [Label = "0.00"]
40--87  [Label = "0.00"]
40--89  [Label = "0.00"]
40--93  [Label = "0.00"]
40--94  [Label = "0.00"]
41--42  [Label = "0.00"]
41--45  [Label = "0.00"]
41--46  [Label = "0.00"]
41--48  [Label = "0.00"]
41--50  [Label = "0.00"]
41--51  [Label = "0.00"]
41--55  [Label = "0.00"]
41--58  [Label = "0.00"]
41--69  [Label = "0.00"]
41--70  [Label = "0.00"]
41--74  [Label = "0.00"]
41--77  [Label = "0.00"]
41--90  [Label = "0.00"]
41--94  [Label = "0.00"]
41--95  [Label = "0.00"]
41--97  [Label = "0.00"]
41--98  [Label = "0.00"]
42--46  [Label = "0.00"]
42--50  [Label = "0.00"]
42--53  [Label = "0.00"]
42--54  [Label = "0.00"]
42--55  [Label = "0.00"]
42--62  [Label = "0.00"]
42--68  [Label = "0.00"]
42--70  [Label = "0.00"]
42--76  [Label = "0.00"]
42--84  [Label = "0.00"]
42--88  [Label = "0.00"]
42--91  [Label = "0.00"]
42--94  [Label = "0.00"]
42--95  [Label = "0.00"]
42--97  [Label = "0.00"]
42--98  [Label = "0.00"]
43--57  [Label = "0.00"]
43--64  [Label = "0.00"]
43--67  [Label = "0.00"]
43--78  [Label = "0.00"]
43--79  [Label = "0.00"]
43--80  [Label = "0.00"]
43--81  [Label = "0.00"]
43--82  [Label = "0.00"]
43--87  [Label = "0.00"]
43--89  [Label = "0.00"]
43--96  [Label = "0.00"]
44--47  [Label = "0.00"]
44--65  [Label = "0.00"]
44--67  [Label = "0.00"]
44--72  [Label = "0.00"]
44--73  [Label = "0.00"]
44--82  [Label = "0.00"]
44--92  [Label = "0.00"]
44--99  [Label = "0.00"]
45--48  [Label = "0.00"]
45--49  [Label = "0.00"]
45--56  [Label = "0.00"]
45--60  [Label = "0.00"]
45--63  [Label = "0.00"]
45--69  [Label = "0.00"]
45--74  [Label = "0.00"]
45--77  [Label = "0.00"]
45--89  [Label = "0.00"]
45--94  [Label = "0.00"]
45--97  [Label = "0.00"]
46--50  [Label = "0.00"]
46--53  [Label = "0.00"]
46--55  [Label = "0.00"]
46--58  [Label = "0.00"]
46--68  [Label = "0.00"]
46--70  [Label = "0.00"]
46--84  [Label = "0.00"]
46--88  [Label = "0.00"]
46--95  [Label = "0.00"]
46--97  [Label = "0.00"]
46--98  [Label = "0.00"]
47--61  [Label = "0.00"]
47--65  [Label = "0.00"]
47--66  [Label = "0.00"]
47--72  [Label = "0.00"]
47--73  [Label = "0.00"]
47--92  [Label = "0.00"]
47--99  [Label = "0.00"]
48--49  [Label = "0.00"]
48--51  [Label = "0.00"]
48--58  [Label = "0.00"]
48--60  [Label = "0.00"]
48--69  [Label = "0.00"]
48--74  [Label = "0.00"]
48--77  [Label = "0.00"]
48--85  [Label = "0.00"]
48--90  [Label = "0.00"]
49--51  [Label = "0.00"]
49--56  [Label = "0.00"]
49--60  [Label = "0.00"]
49--69  [Label = "0.00"]
49--73  [Label = "0.00"]
49--74  [Label = "0.00"]
49--77  [Label = "0.00"]
49--87  [Label = "0.00"]
49--89  [Label = "0.00"]
49--94  [Label = "0.00"]
50--51  [Label = "0.00"]
50--55  [Label = "0.00"]
50--58  [Label = "0.00"]
50--70  [Label = "0.00"]
50--95  [Label = "0.00"]
50--97  [Label = "0.00"]
50--98  [Label = "0.00"]
51--55  [Label = "0.00"]
51--58  [Label = "0.00"]
51--74  [Label = "0.00"]
51--77  [Label = "0.00"]
51--85  [Label = "0.00"]
51--90  [Label = "0.00"]
51--97  [Label = "0.00"]
51--98  [Label = "0.00"]
52--59  [Label = "0.00"]
52--63  [Label = "0.00"]
52--71  [Label = "0.00"]
52--83  [Label = "0.00"]
52--86  [Label = "0.00"]
52--88  [Label = "0.00"]
52--91  [Label = "0.00"]
52--93  [Label = "0.00"]
53--54  [Label = "0.00"]
53--62  [Label = "0.00"]
53--68  [Label = "0.00"]
53--70  [Label = "0.00"]
53--76  [Label = "0.00"]
53--84  [Label = "0.00"]
53--88  [Label = "0.00"]
53--91  [Label = "0.00"]
53--95  [Label = "0.00"]
54--62  [Label = "0.00"]
54--68  [Label = "0.00"]
54--76  [Label = "0.00"]
54--84  [Label = "0.00"]
54--88  [Label = "0.00"]
54--91  [Label = "0.00"]
54--93  [Label = "0.00"]
54--95  [Label = "0.00"]
55--58  [Label = "0.00"]
55--70  [Label = "0.00"]
55--95  [Label = "0.00"]
55--97  [Label = "0.00"]
55--98  [Label = "0.00"]
56--57  [Label = "0.00"]
56--60  [Label = "0.00"]
56--63  [Label = "0.00"]
56--64  [Label = "0.00"]
56--69  [Label = "0.00"]
56--77  [Label = "0.00"]
56--78  [Label = "0.00"]
56--80  [Label = "0.00"]
56--82  [Label = "0.00"]
56--87  [Label = "0.00"]
56--89  [Label = "0.00"]
56--94  [Label = "0.00"]
57--63  [Label = "0.00"]
57--64  [Label = "0.00"]
57--67  [Label = "0.00"]
57--78  [Label = "0.00"]
57--79  [Label = "0.00"]
57--80  [Label = "0.00"]
57--81  [Label = "0.00"]
57--82  [Label = "0.00"]
57--87  [Label = "0.00"]
57--89  [Label = "0.00"]
57--96  [Label = "0.00"]
58--74  [Label = "0.00"]
58--77  [Label = "0.00"]
58--85  [Label = "0.00"]
58--90  [Label = "0.00"]
58--97  [Label = "0.00"]
58--98  [Label = "0.00"]
59--63  [Label = "0.00"]
59--71  [Label = "0.00"]
59--75  [Label = "0.00"]
59--78  [Label = "0.00"]
59--79  [Label = "0.00"]
59--83  [Label = "0.00"]
59--86  [Label = "0.00"]
59--93  [Label = "0.00"]
60--63  [Label = "0.00"]
60--69  [Label = "0.00"]
60--74  [Label = "0.00"]
60--77  [Label = "0.00"]
60--87  [Label = "0.00"]
60--89  [Label = "0.00"]
60--94  [Label = "0.00"]
61--65  [Label = "0.00"]
61--66  [Label = "0.00"]
61--73  [Label = "0.00"]
61--99  [Label = "0.00"]
62--68  [Label = "0.00"]
62--76  [Label = "0.00"]
62--84  [Label = "0.00"]
62--88  [Label = "0.00"]
62--91  [Label = "0.00"]
62--93  [Label = "0.00"]
62--95  [Label = "0.00"]
63--64  [Label = "0.00"]
63--69  [Label = "0.00"]
63--71  [Label = "0.00"]
63--78  [Label = "0.00"]
63--79  [Label = "0.00"]
63--80  [Label = "0.00"]
63--83  [Label = "0.00"]
63--86  [Label = "0.00"]
63--87  [Label = "0.00"]
63--89  [Label = "0.00"]
63--93  [Label = "0.00"]
63--94  [Label = "0.00"]
64--67  [Label = "0.00"]
64--78  [Label = "0.00"]
64--79  [Label = "0.00"]
64--80  [Label = "0.00"]
64--81  [Label = "0.00"]
64--82  [Label = "0.00"]
64--87  [Label = "0.00"]
64--89  [Label = "0.00"]
64--96  [Label = "0.00"]
65--66  [Label = "0.00"]
65--72  [Label = "0.00"]
65--73  [Label = "0.00"]
65--92  [Label = "0.00"]
65--99  [Label = "0.00"]
66--73  [Label = "0.00"]
66--99  [Label = "0.00"]
67--80  [Label = "0.00"]
67--81  [Label = "0.00"]
67--82  [Label = "0.00"]
67--87  [Label = "0.00"]
67--89  [Label = "0.00"]
67--96  [Label = "0.00"]
68--70  [Label = "0.00"]
68--76  [Label = "0.00"]
68--84  [Label = "0.00"]
68--88  [Label = "0.00"]
68--91  [Label = "0.00"]
68--93  [Label = "0.00"]
68--94  [Label = "0.00"]
68--95  [Label = "0.00"]
68--97  [Label = "0.00"]
69--74  [Label = "0.00"]
69--77  [Label = "0.00"]
69--89  [Label = "0.00"]
69--94  [Label = "0.00"]
69--97  [Label = "0.00"]
70--76  [Label = "0.00"]
70--84  [Label = "0.00"]
70--88  [Label = "0.00"]
70--95  [Label = "0.00"]
70--97  [Label = "0.00"]
70--98  [Label = "0.00"]
71--75  [Label = "0.00"]
71--78  [Label = "0.00"]
71--79  [Label = "0.00"]
71--83  [Label = "0.00"]
71--86  [Label = "0.00"]
72--92  [Label = "0.00"]
72--99  [Label = "0.00"]
73--82  [Label = "0.00"]
73--99  [Label = "0.00"]
74--77  [Label = "0.00"]
74--90  [Label = "0.00"]
74--97  [Label = "0.00"]
75--78  [Label = "0.00"]
75--79  [Label = "0.00"]
75--83  [Label = "0.00"]
75--86  [Label = "0.00"]
76--84  [Label = "0.00"]
76--88  [Label = "0.00"]
76--91  [Label = "0.00"]
76--95  [Label = "0.00"]
77--90  [Label = "0.00"]
77--94  [Label = "0.00"]
77--97  [Label = "0.00"]
78--79  [Label = "0.00"]
78--80  [Label = "0.00"]
78--81  [Label = "0.00"]
78--83  [Label = "0.00"]
78--86  [Label = "0.00"]
78--87  [Label = "0.00"]
78--89  [Label = "0.00"]
78--96  [Label = "0.00"]
79--80  [Label = "0.00"]
79--81  [Label = "0.00"]
79--83  [Label = "0.00"]
79--87  [Label = "0.00"]
79--89  [Label = "0.00"]
79--96  [Label = "0.00"]
80--81  [Label = "0.00"]
80--82  [Label = "0.00"]
80--87  [Label = "0.00"]
80--89  [Label = "0.00"]
80--96  [Label = "0.00"]
81--82  [Label = "0.00"]
81--87  [Label = "0.00"]
81--89  [Label = "0.00"]
81--96  [Label = "0.00"]
82--87  [Label = "0.00"]
82--89  [Label = "0.00"]
82--96  [Label = "0.00"]
83--86  [Label = "0.00"]
83--93  [Label = "0.00"]
84--88  [Label = "0.00"]
84--91  [Label = "0.00"]
84--95  [Label = "0.00"]
85--90  [Label = "0.00"]
86--93  [Label = "0.00"]
87--89  [Label = "0.00"]
87--96  [Label = "0.00"]
88--91  [Label = "0.00"]
88--93  [Label = "0.00"]
88--94  [Label = "0.00"]
88--95  [Label = "0.00"]
88--97  [Label = "0.00"]
89--96  [Label = "0.00"]
90--98  [Label = "0.00"]
91--93  [Label = "0.00"]
91--95  [Label = "0.00"]
93--94  [Label = "0.00"]
94--97  [Label = "0.00"]
95--97  [Label = "0.00"]
97--98  [Label = "0.00"]
}
