graph 666{
0  [Label = "0 (0.00)"]
7  [Label = "7 (0.00)"]
8  [Label = "8 (0.00)"]
11  [Label = "11 (0.00)"]
14  [Label = "14 (0.00)"]
15  [Label = "15 (0.00)"]
18  [Label = "18 (0.00)"]
20  [Label = "20 (0.00)"]
23  [Label = "23 (0.00)"]
29  [Label = "29 (0.00)"]
31  [Label = "31 (0.00)"]
33  [Label = "33 (0.00)"]
35  [Label = "35 (0.00)"]
40  [Label = "40 (0.00)"]
41  [Label = "41 (0.00)"]
42  [Label = "42 (0.00)"]
45  [Label = "45 (0.00)"]
52  [Label = "52 (0.00)"]
54  [Label = "54 (0.00)"]
56  [Label = "56 (0.00)"]
60  [Label = "60 (0.00)"]
63  [Label = "63 (0.00)"]
68  [Label = "68 (0.00)"]
69  [Label = "69 (0.00)"]
88  [Label = "88 (0.00)"]
91  [Label = "91 (0.00)"]
93  [Label = "93 (0.00)"]
94  [Label = "94 (0.00)"]
97  [Label = "97 (0.00)"]
3  [Label = "3 (0.00)"]
37  [Label = "37 (0.00)"]
46  [Label = "46 (0.00)"]
48  [Label = "48 (0.00)"]
49  [Label = "49 (0.00)"]
50  [Label = "50 (0.00)"]
51  [Label = "51 (0.00)"]
55  [Label = "55 (0.00)"]
58  [Label = "58 (0.00)"]
70  [Label = "70 (0.00)"]
74  [Label = "74 (0.00)"]
77  [Label = "77 (0.00)"]
90  [Label = "90 (0.00)"]
98  [Label = "98 (0.00)"]
25  [Label = "25 (0.00)"]
28  [Label = "28 (0.00)"]
59  [Label = "59 (0.00)"]
83  [Label = "83 (0.00)"]
21  [Label = "21 (0.00)"]
89  [Label = "89 (0.00)"]
30  [Label = "30 (0.00)"]
53  [Label = "53 (0.00)"]
62  [Label = "62 (0.00)"]
71  [Label = "71 (0.00)"]
86  [Label = "86 (0.00)"]
78  [Label = "78 (0.00)"]
95  [Label = "95 (0.00)"]
87  [Label = "87 (0.00)"]
36  [Label = "36 (0.00)"]
57  [Label = "57 (0.00)"]
64  [Label = "64 (0.00)"]
82  [Label = "82 (0.00)"]
80  [Label = "80 (0.00)"]
76  [Label = "76 (0.00)"]
84  [Label = "84 (0.00)"]
1  [Label = "1 (0.00)"]
12  [Label = "12 (0.00)"]
79  [Label = "79 (0.00)"]
5  [Label = "5 (0.00)"]
17  [Label = "17 (0.00)"]
24  [Label = "24 (0.00)"]
26  [Label = "26 (0.00)"]
27  [Label = "27 (0.00)"]
85  [Label = "85 (0.00)"]
73  [Label = "73 (0.00)"]
34  [Label = "34 (0.00)"]
75  [Label = "75 (0.00)"]
4  [Label = "4 (0.00)"]
39  [Label = "39 (0.00)"]
43  [Label = "43 (0.00)"]
81  [Label = "81 (0.00)"]
16  [Label = "16 (0.00)"]
9  [Label = "9 (0.00)"]
13  [Label = "13 (0.00)"]
19  [Label = "19 (0.00)"]
32  [Label = "32 (0.00)"]
67  [Label = "67 (0.00)"]
96  [Label = "96 (0.00)"]
2  [Label = "2 (0.00)"]
44  [Label = "44 (0.00)"]
10  [Label = "10 (0.00)"]
38  [Label = "38 (0.00)"]
61  [Label = "61 (0.00)"]
66  [Label = "66 (0.00)"]
65  [Label = "65 (0.00)"]
99  [Label = "99 (0.00)"]
6  [Label = "6 (0.00)"]
47  [Label = "47 (0.00)"]
22  [Label = "22 (0.00)"]
72  [Label = "72 (0.00)"]
92  [Label = "92 (0.00)"]

0--7  [Label = "0.00"]
0--8  [Label = "0.00"]
0--11  [Label = "0.00"]
0--14  [Label = "0.00"]
0--15  [Label = "0.00"]
0--18  [Label = "0.00"]
0--20  [Label = "0.00"]
0--23  [Label = "0.00"]
0--29  [Label = "0.00"]
0--31  [Label = "0.00"]
0--33  [Label = "0.00"]
0--35  [Label = "0.00"]
0--40  [Label = "0.00"]
0--41  [Label = "0.00"]
0--42  [Label = "0.00"]
0--45  [Label = "0.00"]
0--52  [Label = "0.00"]
0--54  [Label = "0.00"]
0--56  [Label = "0.00"]
0--60  [Label = "0.00"]
0--63  [Label = "0.00"]
0--68  [Label = "0.00"]
0--69  [Label = "0.00"]
0--88  [Label = "0.00"]
0--91  [Label = "0.00"]
0--93  [Label = "0.00"]
0--94  [Label = "0.00"]
0--97  [Label = "0.00"]
3--7  [Label = "0.00"]
7--37  [Label = "0.00"]
7--46  [Label = "0.00"]
7--48  [Label = "0.00"]
7--49  [Label = "0.00"]
7--50  [Label = "0.00"]
7--51  [Label = "0.00"]
7--55  [Label = "0.00"]
7--58  [Label = "0.00"]
7--70  [Label = "0.00"]
7--74  [Label = "0.00"]
7--77  [Label = "0.00"]
7--90  [Label = "0.00"]
7--98  [Label = "0.00"]
8--25  [Label = "0.00"]
8--28  [Label = "0.00"]
8--59  [Label = "0.00"]
8--83  [Label = "0.00"]
11--21  [Label = "0.00"]
11--89  [Label = "0.00"]
15--30  [Label = "0.00"]
15--53  [Label = "0.00"]
15--62  [Label = "0.00"]
18--71  [Label = "0.00"]
18--86  [Label = "0.00"]
20--78  [Label = "0.00"]
23--95  [Label = "0.00"]
31--87  [Label = "0.00"]
33--36  [Label = "0.00"]
33--57  [Label = "0.00"]
33--64  [Label = "0.00"]
33--82  [Label = "0.00"]
40--80  [Label = "0.00"]
42--76  [Label = "0.00"]
42--84  [Label = "0.00"]
1--52  [Label = "0.00"]
12--52  [Label = "0.00"]
63--79  [Label = "0.00"]
3--5  [Label = "0.00"]
3--17  [Label = "0.00"]
3--24  [Label = "0.00"]
3--26  [Label = "0.00"]
3--27  [Label = "0.00"]
3--85  [Label = "0.00"]
49--73  [Label = "0.00"]
25--34  [Label = "0.00"]
25--75  [Label = "0.00"]
4--28  [Label = "0.00"]
28--39  [Label = "0.00"]
28--43  [Label = "0.00"]
28--81  [Label = "0.00"]
16--83  [Label = "0.00"]
9--21  [Label = "0.00"]
13--21  [Label = "0.00"]
19--21  [Label = "0.00"]
21--32  [Label = "0.00"]
21--67  [Label = "0.00"]
21--96  [Label = "0.00"]
2--36  [Label = "0.00"]
36--44  [Label = "0.00"]
5--10  [Label = "0.00"]
5--38  [Label = "0.00"]
5--61  [Label = "0.00"]
5--66  [Label = "0.00"]
17--65  [Label = "0.00"]
17--99  [Label = "0.00"]
6--73  [Label = "0.00"]
47--73  [Label = "0.00"]
9--22  [Label = "0.00"]
9--72  [Label = "0.00"]
9--92  [Label = "0.00"]
}
