graph 666{
0  [Label = "0 (0.00)"]
1  [Label = "1 (0.00)"]
2  [Label = "2 (0.00)"]
3  [Label = "3 (0.00)"]
4  [Label = "4 (0.00)"]
5  [Label = "5 (0.00)"]
6  [Label = "6 (0.00)"]
7  [Label = "7 (0.00)"]
8  [Label = "8 (0.00)"]
9  [Label = "9 (0.00)"]
10  [Label = "10 (0.00)"]
11  [Label = "11 (0.00)"]
12  [Label = "12 (0.00)"]
13  [Label = "13 (0.00)"]
14  [Label = "14 (0.00)"]
15  [Label = "15 (0.00)"]
16  [Label = "16 (0.00)"]
17  [Label = "17 (0.00)"]
18  [Label = "18 (0.00)"]
19  [Label = "19 (0.00)"]
21  [Label = "21 (0.00)"]
20  [Label = "20 (0.00)"]
22  [Label = "22 (0.00)"]
23  [Label = "23 (0.00)"]
24  [Label = "24 (0.00)"]
25  [Label = "25 (0.00)"]
26  [Label = "26 (0.00)"]
27  [Label = "27 (0.00)"]
28  [Label = "28 (0.00)"]
29  [Label = "29 (0.00)"]
30  [Label = "30 (0.00)"]
31  [Label = "31 (0.00)"]
32  [Label = "32 (0.00)"]
33  [Label = "33 (0.00)"]
34  [Label = "34 (0.00)"]
36  [Label = "36 (0.00)"]
35  [Label = "35 (0.00)"]
37  [Label = "37 (0.00)"]
38  [Label = "38 (0.00)"]
39  [Label = "39 (0.00)"]
40  [Label = "40 (0.00)"]
41  [Label = "41 (0.00)"]
42  [Label = "42 (0.00)"]
43  [Label = "43 (0.00)"]
44  [Label = "44 (0.00)"]
45  [Label = "45 (0.00)"]
46  [Label = "46 (0.00)"]
47  [Label = "47 (0.00)"]
48  [Label = "48 (0.00)"]
49  [Label = "49 (0.00)"]
50  [Label = "50 (0.00)"]
51  [Label = "51 (0.00)"]
52  [Label = "52 (0.00)"]
53  [Label = "53 (0.00)"]
54  [Label = "54 (0.00)"]
55  [Label = "55 (0.00)"]
56  [Label = "56 (0.00)"]
57  [Label = "57 (0.00)"]
58  [Label = "58 (0.00)"]
59  [Label = "59 (0.00)"]
60  [Label = "60 (0.00)"]
61  [Label = "61 (0.00)"]
62  [Label = "62 (0.00)"]
63  [Label = "63 (0.00)"]
64  [Label = "64 (0.00)"]
65  [Label = "65 (0.00)"]
66  [Label = "66 (0.00)"]
67  [Label = "67 (0.00)"]
68  [Label = "68 (0.00)"]
69  [Label = "69 (0.00)"]
70  [Label = "70 (0.00)"]
71  [Label = "71 (0.00)"]
72  [Label = "72 (0.00)"]
73  [Label = "73 (0.00)"]
74  [Label = "74 (0.00)"]
75  [Label = "75 (0.00)"]
76  [Label = "76 (0.00)"]
78  [Label = "78 (0.00)"]
77  [Label = "77 (0.00)"]
79  [Label = "79 (0.00)"]
80  [Label = "80 (0.00)"]
82  [Label = "82 (0.00)"]
81  [Label = "81 (0.00)"]
83  [Label = "83 (0.00)"]
84  [Label = "84 (0.00)"]
85  [Label = "85 (0.00)"]
86  [Label = "86 (0.00)"]
87  [Label = "87 (0.00)"]
88  [Label = "88 (0.00)"]
90  [Label = "90 (0.00)"]
89  [Label = "89 (0.00)"]
91  [Label = "91 (0.00)"]
92  [Label = "92 (0.00)"]
93  [Label = "93 (0.00)"]
94  [Label = "94 (0.00)"]
95  [Label = "95 (0.00)"]
96  [Label = "96 (0.00)"]
97  [Label = "97 (0.00)"]
99  [Label = "99 (0.00)"]
98  [Label = "98 (0.00)"]
100  [Label = "100 (0.00)"]
101  [Label = "101 (0.00)"]
102  [Label = "102 (0.00)"]
103  [Label = "103 (0.00)"]
104  [Label = "104 (0.00)"]
105  [Label = "105 (0.00)"]
106  [Label = "106 (0.00)"]
107  [Label = "107 (0.00)"]
108  [Label = "108 (0.00)"]
109  [Label = "109 (0.00)"]
111  [Label = "111 (0.00)"]
110  [Label = "110 (0.00)"]
112  [Label = "112 (0.00)"]
113  [Label = "113 (0.00)"]
114  [Label = "114 (0.00)"]
115  [Label = "115 (0.00)"]
116  [Label = "116 (0.00)"]
117  [Label = "117 (0.00)"]
118  [Label = "118 (0.00)"]
119  [Label = "119 (0.00)"]
121  [Label = "121 (0.00)"]
120  [Label = "120 (0.00)"]
123  [Label = "123 (0.00)"]
122  [Label = "122 (0.00)"]
124  [Label = "124 (0.00)"]
125  [Label = "125 (0.00)"]
129  [Label = "129 (0.00)"]
126  [Label = "126 (0.00)"]
127  [Label = "127 (0.00)"]
128  [Label = "128 (0.00)"]
130  [Label = "130 (0.00)"]
132  [Label = "132 (0.00)"]
131  [Label = "131 (0.00)"]
133  [Label = "133 (0.00)"]
134  [Label = "134 (0.00)"]
135  [Label = "135 (0.00)"]
136  [Label = "136 (0.00)"]
137  [Label = "137 (0.00)"]
138  [Label = "138 (0.00)"]
139  [Label = "139 (0.00)"]
141  [Label = "141 (0.00)"]
140  [Label = "140 (0.00)"]
142  [Label = "142 (0.00)"]
143  [Label = "143 (0.00)"]
144  [Label = "144 (0.00)"]
145  [Label = "145 (0.00)"]
147  [Label = "147 (0.00)"]
146  [Label = "146 (0.00)"]
148  [Label = "148 (0.00)"]
149  [Label = "149 (0.00)"]
150  [Label = "150 (0.00)"]
151  [Label = "151 (0.00)"]
152  [Label = "152 (0.00)"]
153  [Label = "153 (0.00)"]
154  [Label = "154 (0.00)"]
155  [Label = "155 (0.00)"]
157  [Label = "157 (0.00)"]
156  [Label = "156 (0.00)"]
158  [Label = "158 (0.00)"]
159  [Label = "159 (0.00)"]
160  [Label = "160 (0.00)"]
161  [Label = "161 (0.00)"]
162  [Label = "162 (0.00)"]
163  [Label = "163 (0.00)"]
164  [Label = "164 (0.00)"]
165  [Label = "165 (0.00)"]
166  [Label = "166 (0.00)"]
168  [Label = "168 (0.00)"]
167  [Label = "167 (0.00)"]
169  [Label = "169 (0.00)"]
170  [Label = "170 (0.00)"]
171  [Label = "171 (0.00)"]
172  [Label = "172 (0.00)"]
173  [Label = "173 (0.00)"]
174  [Label = "174 (0.00)"]
175  [Label = "175 (0.00)"]
177  [Label = "177 (0.00)"]
176  [Label = "176 (0.00)"]
178  [Label = "178 (0.00)"]
179  [Label = "179 (0.00)"]
180  [Label = "180 (0.00)"]
181  [Label = "181 (0.00)"]
182  [Label = "182 (0.00)"]
183  [Label = "183 (0.00)"]
184  [Label = "184 (0.00)"]
185  [Label = "185 (0.00)"]
187  [Label = "187 (0.00)"]
186  [Label = "186 (0.00)"]
188  [Label = "188 (0.00)"]
191  [Label = "191 (0.00)"]
189  [Label = "189 (0.00)"]
190  [Label = "190 (0.00)"]
193  [Label = "193 (0.00)"]
192  [Label = "192 (0.00)"]
194  [Label = "194 (0.00)"]
195  [Label = "195 (0.00)"]
196  [Label = "196 (0.00)"]
197  [Label = "197 (0.00)"]
198  [Label = "198 (0.00)"]
199  [Label = "199 (0.00)"]
200  [Label = "200 (0.00)"]
201  [Label = "201 (0.00)"]
202  [Label = "202 (0.00)"]
203  [Label = "203 (0.00)"]
204  [Label = "204 (0.00)"]
205  [Label = "205 (0.00)"]
207  [Label = "207 (0.00)"]
206  [Label = "206 (0.00)"]
209  [Label = "209 (0.00)"]
208  [Label = "208 (0.00)"]
210  [Label = "210 (0.00)"]
211  [Label = "211 (0.00)"]
212  [Label = "212 (0.00)"]
213  [Label = "213 (0.00)"]
217  [Label = "217 (0.00)"]
214  [Label = "214 (0.00)"]
216  [Label = "216 (0.00)"]
215  [Label = "215 (0.00)"]
218  [Label = "218 (0.00)"]
219  [Label = "219 (0.00)"]
221  [Label = "221 (0.00)"]
220  [Label = "220 (0.00)"]
223  [Label = "223 (0.00)"]
222  [Label = "222 (0.00)"]
224  [Label = "224 (0.00)"]
225  [Label = "225 (0.00)"]
228  [Label = "228 (0.00)"]
229  [Label = "229 (0.00)"]
226  [Label = "226 (0.00)"]
227  [Label = "227 (0.00)"]
231  [Label = "231 (0.00)"]
230  [Label = "230 (0.00)"]
232  [Label = "232 (0.00)"]
233  [Label = "233 (0.00)"]
234  [Label = "234 (0.00)"]
235  [Label = "235 (0.00)"]
236  [Label = "236 (0.00)"]
237  [Label = "237 (0.00)"]
239  [Label = "239 (0.00)"]
238  [Label = "238 (0.00)"]
240  [Label = "240 (0.00)"]
241  [Label = "241 (0.00)"]
242  [Label = "242 (0.00)"]
244  [Label = "244 (0.00)"]
245  [Label = "245 (0.00)"]
246  [Label = "246 (0.00)"]
243  [Label = "243 (0.00)"]
247  [Label = "247 (0.00)"]
248  [Label = "248 (0.00)"]
250  [Label = "250 (0.00)"]
249  [Label = "249 (0.00)"]
251  [Label = "251 (0.00)"]
252  [Label = "252 (0.00)"]
258  [Label = "258 (0.00)"]
253  [Label = "253 (0.00)"]
254  [Label = "254 (0.00)"]
256  [Label = "256 (0.00)"]
255  [Label = "255 (0.00)"]
257  [Label = "257 (0.00)"]
259  [Label = "259 (0.00)"]
261  [Label = "261 (0.00)"]
262  [Label = "262 (0.00)"]
260  [Label = "260 (0.00)"]
263  [Label = "263 (0.00)"]
264  [Label = "264 (0.00)"]
265  [Label = "265 (0.00)"]
266  [Label = "266 (0.00)"]
267  [Label = "267 (0.00)"]
271  [Label = "271 (0.00)"]
269  [Label = "269 (0.00)"]
268  [Label = "268 (0.00)"]
270  [Label = "270 (0.00)"]
272  [Label = "272 (0.00)"]
273  [Label = "273 (0.00)"]
274  [Label = "274 (0.00)"]
275  [Label = "275 (0.00)"]
276  [Label = "276 (0.00)"]
277  [Label = "277 (0.00)"]
278  [Label = "278 (0.00)"]
279  [Label = "279 (0.00)"]
280  [Label = "280 (0.00)"]
281  [Label = "281 (0.00)"]
282  [Label = "282 (0.00)"]
283  [Label = "283 (0.00)"]
284  [Label = "284 (0.00)"]
287  [Label = "287 (0.00)"]
286  [Label = "286 (0.00)"]
285  [Label = "285 (0.00)"]
288  [Label = "288 (0.00)"]
289  [Label = "289 (0.00)"]
290  [Label = "290 (0.00)"]
291  [Label = "291 (0.00)"]
292  [Label = "292 (0.00)"]
293  [Label = "293 (0.00)"]
294  [Label = "294 (0.00)"]
295  [Label = "295 (0.00)"]
296  [Label = "296 (0.00)"]
297  [Label = "297 (0.00)"]
299  [Label = "299 (0.00)"]
301  [Label = "301 (0.00)"]
298  [Label = "298 (0.00)"]
300  [Label = "300 (0.00)"]
303  [Label = "303 (0.00)"]
302  [Label = "302 (0.00)"]
306  [Label = "306 (0.00)"]
308  [Label = "308 (0.00)"]
304  [Label = "304 (0.00)"]
305  [Label = "305 (0.00)"]
307  [Label = "307 (0.00)"]
310  [Label = "310 (0.00)"]
309  [Label = "309 (0.00)"]
311  [Label = "311 (0.00)"]
313  [Label = "313 (0.00)"]
314  [Label = "314 (0.00)"]
312  [Label = "312 (0.00)"]
315  [Label = "315 (0.00)"]
317  [Label = "317 (0.00)"]
318  [Label = "318 (0.00)"]
319  [Label = "319 (0.00)"]
322  [Label = "322 (0.00)"]
316  [Label = "316 (0.00)"]
320  [Label = "320 (0.00)"]
321  [Label = "321 (0.00)"]
323  [Label = "323 (0.00)"]
324  [Label = "324 (0.00)"]
325  [Label = "325 (0.00)"]
326  [Label = "326 (0.00)"]
327  [Label = "327 (0.00)"]
328  [Label = "328 (0.00)"]
329  [Label = "329 (0.00)"]
332  [Label = "332 (0.00)"]
330  [Label = "330 (0.00)"]
331  [Label = "331 (0.00)"]
333  [Label = "333 (0.00)"]
334  [Label = "334 (0.00)"]
335  [Label = "335 (0.00)"]
336  [Label = "336 (0.00)"]
337  [Label = "337 (0.00)"]
343  [Label = "343 (0.00)"]
339  [Label = "339 (0.00)"]
338  [Label = "338 (0.00)"]
341  [Label = "341 (0.00)"]
342  [Label = "342 (0.00)"]
340  [Label = "340 (0.00)"]
344  [Label = "344 (0.00)"]
345  [Label = "345 (0.00)"]
346  [Label = "346 (0.00)"]
347  [Label = "347 (0.00)"]
351  [Label = "351 (0.00)"]
348  [Label = "348 (0.00)"]
349  [Label = "349 (0.00)"]
354  [Label = "354 (0.00)"]
352  [Label = "352 (0.00)"]
355  [Label = "355 (0.00)"]
357  [Label = "357 (0.00)"]
350  [Label = "350 (0.00)"]
356  [Label = "356 (0.00)"]
359  [Label = "359 (0.00)"]
353  [Label = "353 (0.00)"]
358  [Label = "358 (0.00)"]
360  [Label = "360 (0.00)"]
362  [Label = "362 (0.00)"]
363  [Label = "363 (0.00)"]
361  [Label = "361 (0.00)"]
364  [Label = "364 (0.00)"]
372  [Label = "372 (0.00)"]
365  [Label = "365 (0.00)"]
366  [Label = "366 (0.00)"]
367  [Label = "367 (0.00)"]
369  [Label = "369 (0.00)"]
368  [Label = "368 (0.00)"]
371  [Label = "371 (0.00)"]
370  [Label = "370 (0.00)"]
373  [Label = "373 (0.00)"]
374  [Label = "374 (0.00)"]
375  [Label = "375 (0.00)"]
376  [Label = "376 (0.00)"]
377  [Label = "377 (0.00)"]
378  [Label = "378 (0.00)"]
379  [Label = "379 (0.00)"]
381  [Label = "381 (0.00)"]
380  [Label = "380 (0.00)"]
382  [Label = "382 (0.00)"]
383  [Label = "383 (0.00)"]
384  [Label = "384 (0.00)"]
386  [Label = "386 (0.00)"]
385  [Label = "385 (0.00)"]
387  [Label = "387 (0.00)"]
390  [Label = "390 (0.00)"]
389  [Label = "389 (0.00)"]
388  [Label = "388 (0.00)"]
395  [Label = "395 (0.00)"]
391  [Label = "391 (0.00)"]
392  [Label = "392 (0.00)"]
394  [Label = "394 (0.00)"]
393  [Label = "393 (0.00)"]
396  [Label = "396 (0.00)"]
397  [Label = "397 (0.00)"]
398  [Label = "398 (0.00)"]
399  [Label = "399 (0.00)"]
403  [Label = "403 (0.00)"]
400  [Label = "400 (0.00)"]
401  [Label = "401 (0.00)"]
404  [Label = "404 (0.00)"]
405  [Label = "405 (0.00)"]
402  [Label = "402 (0.00)"]
406  [Label = "406 (0.00)"]
408  [Label = "408 (0.00)"]
407  [Label = "407 (0.00)"]
410  [Label = "410 (0.00)"]
412  [Label = "412 (0.00)"]
409  [Label = "409 (0.00)"]
413  [Label = "413 (0.00)"]
414  [Label = "414 (0.00)"]
415  [Label = "415 (0.00)"]
411  [Label = "411 (0.00)"]
418  [Label = "418 (0.00)"]
416  [Label = "416 (0.00)"]
420  [Label = "420 (0.00)"]
419  [Label = "419 (0.00)"]
421  [Label = "421 (0.00)"]
422  [Label = "422 (0.00)"]
417  [Label = "417 (0.00)"]
423  [Label = "423 (0.00)"]
424  [Label = "424 (0.00)"]
426  [Label = "426 (0.00)"]
425  [Label = "425 (0.00)"]
427  [Label = "427 (0.00)"]
430  [Label = "430 (0.00)"]
428  [Label = "428 (0.00)"]
431  [Label = "431 (0.00)"]
429  [Label = "429 (0.00)"]
434  [Label = "434 (0.00)"]
432  [Label = "432 (0.00)"]
433  [Label = "433 (0.00)"]
441  [Label = "441 (0.00)"]
435  [Label = "435 (0.00)"]
436  [Label = "436 (0.00)"]
437  [Label = "437 (0.00)"]
438  [Label = "438 (0.00)"]
440  [Label = "440 (0.00)"]
439  [Label = "439 (0.00)"]
442  [Label = "442 (0.00)"]
443  [Label = "443 (0.00)"]
445  [Label = "445 (0.00)"]
444  [Label = "444 (0.00)"]
446  [Label = "446 (0.00)"]
447  [Label = "447 (0.00)"]
448  [Label = "448 (0.00)"]
450  [Label = "450 (0.00)"]
451  [Label = "451 (0.00)"]
452  [Label = "452 (0.00)"]
449  [Label = "449 (0.00)"]
453  [Label = "453 (0.00)"]
456  [Label = "456 (0.00)"]
454  [Label = "454 (0.00)"]
458  [Label = "458 (0.00)"]
455  [Label = "455 (0.00)"]
460  [Label = "460 (0.00)"]
457  [Label = "457 (0.00)"]
461  [Label = "461 (0.00)"]
459  [Label = "459 (0.00)"]
462  [Label = "462 (0.00)"]
463  [Label = "463 (0.00)"]
464  [Label = "464 (0.00)"]
465  [Label = "465 (0.00)"]
467  [Label = "467 (0.00)"]
466  [Label = "466 (0.00)"]
468  [Label = "468 (0.00)"]
470  [Label = "470 (0.00)"]
471  [Label = "471 (0.00)"]
472  [Label = "472 (0.00)"]
469  [Label = "469 (0.00)"]
473  [Label = "473 (0.00)"]
474  [Label = "474 (0.00)"]
475  [Label = "475 (0.00)"]
477  [Label = "477 (0.00)"]
476  [Label = "476 (0.00)"]
478  [Label = "478 (0.00)"]
479  [Label = "479 (0.00)"]
480  [Label = "480 (0.00)"]
481  [Label = "481 (0.00)"]
482  [Label = "482 (0.00)"]
484  [Label = "484 (0.00)"]
486  [Label = "486 (0.00)"]
483  [Label = "483 (0.00)"]
485  [Label = "485 (0.00)"]
487  [Label = "487 (0.00)"]
488  [Label = "488 (0.00)"]
489  [Label = "489 (0.00)"]
491  [Label = "491 (0.00)"]
490  [Label = "490 (0.00)"]
492  [Label = "492 (0.00)"]
493  [Label = "493 (0.00)"]
494  [Label = "494 (0.00)"]
495  [Label = "495 (0.00)"]
496  [Label = "496 (0.00)"]
499  [Label = "499 (0.00)"]
497  [Label = "497 (0.00)"]
498  [Label = "498 (0.00)"]

0--1  [Label = "0.00"]
1--2  [Label = "0.00"]
2--3  [Label = "0.00"]
3--4  [Label = "0.00"]
4--5  [Label = "0.00"]
5--6  [Label = "0.00"]
6--7  [Label = "0.00"]
7--8  [Label = "0.00"]
8--9  [Label = "0.00"]
9--10  [Label = "0.00"]
10--11  [Label = "0.00"]
11--12  [Label = "0.00"]
12--13  [Label = "0.00"]
13--14  [Label = "0.00"]
14--15  [Label = "0.00"]
15--16  [Label = "0.00"]
16--17  [Label = "0.00"]
17--18  [Label = "0.00"]
18--19  [Label = "0.00"]
19--21  [Label = "0.00"]
21--20  [Label = "0.00"]
20--22  [Label = "0.00"]
22--23  [Label = "0.00"]
23--24  [Label = "0.00"]
24--25  [Label = "0.00"]
25--26  [Label = "0.00"]
26--27  [Label = "0.00"]
27--28  [Label = "0.00"]
28--29  [Label = "0.00"]
29--30  [Label = "0.00"]
30--31  [Label = "0.00"]
31--32  [Label = "0.00"]
32--33  [Label = "0.00"]
33--34  [Label = "0.00"]
34--36  [Label = "0.00"]
36--35  [Label = "0.00"]
35--37  [Label = "0.00"]
37--38  [Label = "0.00"]
38--39  [Label = "0.00"]
39--40  [Label = "0.00"]
40--41  [Label = "0.00"]
41--42  [Label = "0.00"]
42--43  [Label = "0.00"]
43--44  [Label = "0.00"]
44--45  [Label = "0.00"]
45--46  [Label = "0.00"]
46--47  [Label = "0.00"]
47--48  [Label = "0.00"]
48--49  [Label = "0.00"]
49--50  [Label = "0.00"]
50--51  [Label = "0.00"]
51--52  [Label = "0.00"]
52--53  [Label = "0.00"]
53--54  [Label = "0.00"]
54--55  [Label = "0.00"]
55--56  [Label = "0.00"]
56--57  [Label = "0.00"]
57--58  [Label = "0.00"]
58--59  [Label = "0.00"]
59--60  [Label = "0.00"]
60--61  [Label = "0.00"]
61--62  [Label = "0.00"]
62--63  [Label = "0.00"]
63--64  [Label = "0.00"]
64--65  [Label = "0.00"]
65--66  [Label = "0.00"]
66--67  [Label = "0.00"]
67--68  [Label = "0.00"]
68--69  [Label = "0.00"]
69--70  [Label = "0.00"]
70--71  [Label = "0.00"]
71--72  [Label = "0.00"]
72--73  [Label = "0.00"]
73--74  [Label = "0.00"]
74--75  [Label = "0.00"]
75--76  [Label = "0.00"]
76--78  [Label = "0.00"]
78--77  [Label = "0.00"]
77--79  [Label = "0.00"]
79--80  [Label = "0.00"]
80--82  [Label = "0.00"]
82--81  [Label = "0.00"]
81--83  [Label = "0.00"]
83--84  [Label = "0.00"]
84--85  [Label = "0.00"]
85--86  [Label = "0.00"]
86--87  [Label = "0.00"]
87--88  [Label = "0.00"]
88--90  [Label = "0.00"]
90--89  [Label = "0.00"]
89--91  [Label = "0.00"]
91--92  [Label = "0.00"]
92--93  [Label = "0.00"]
93--94  [Label = "0.00"]
94--95  [Label = "0.00"]
95--96  [Label = "0.00"]
96--97  [Label = "0.00"]
97--99  [Label = "0.00"]
99--98  [Label = "0.00"]
98--100  [Label = "0.00"]
100--101  [Label = "0.00"]
101--102  [Label = "0.00"]
102--103  [Label = "0.00"]
103--104  [Label = "0.00"]
104--105  [Label = "0.00"]
105--106  [Label = "0.00"]
106--107  [Label = "0.00"]
107--108  [Label = "0.00"]
108--109  [Label = "0.00"]
109--111  [Label = "0.00"]
111--110  [Label = "0.00"]
110--112  [Label = "0.00"]
112--113  [Label = "0.00"]
113--114  [Label = "0.00"]
114--115  [Label = "0.00"]
115--116  [Label = "0.00"]
116--117  [Label = "0.00"]
117--118  [Label = "0.00"]
118--119  [Label = "0.00"]
119--121  [Label = "0.00"]
121--120  [Label = "0.00"]
120--123  [Label = "0.00"]
123--122  [Label = "0.00"]
122--124  [Label = "0.00"]
124--125  [Label = "0.00"]
125--129  [Label = "0.00"]
129--126  [Label = "0.00"]
126--127  [Label = "0.00"]
127--128  [Label = "0.00"]
128--130  [Label = "0.00"]
130--132  [Label = "0.00"]
132--131  [Label = "0.00"]
131--133  [Label = "0.00"]
133--134  [Label = "0.00"]
134--135  [Label = "0.00"]
135--136  [Label = "0.00"]
136--137  [Label = "0.00"]
137--138  [Label = "0.00"]
138--139  [Label = "0.00"]
139--141  [Label = "0.00"]
141--140  [Label = "0.00"]
140--142  [Label = "0.00"]
142--143  [Label = "0.00"]
143--144  [Label = "0.00"]
144--145  [Label = "0.00"]
145--147  [Label = "0.00"]
147--146  [Label = "0.00"]
146--148  [Label = "0.00"]
148--149  [Label = "0.00"]
149--150  [Label = "0.00"]
150--151  [Label = "0.00"]
151--152  [Label = "0.00"]
152--153  [Label = "0.00"]
153--154  [Label = "0.00"]
154--155  [Label = "0.00"]
155--157  [Label = "0.00"]
157--156  [Label = "0.00"]
156--158  [Label = "0.00"]
158--159  [Label = "0.00"]
159--160  [Label = "0.00"]
160--161  [Label = "0.00"]
161--162  [Label = "0.00"]
162--163  [Label = "0.00"]
163--164  [Label = "0.00"]
164--165  [Label = "0.00"]
165--166  [Label = "0.00"]
166--168  [Label = "0.00"]
168--167  [Label = "0.00"]
167--169  [Label = "0.00"]
169--170  [Label = "0.00"]
170--171  [Label = "0.00"]
171--172  [Label = "0.00"]
172--173  [Label = "0.00"]
173--174  [Label = "0.00"]
174--175  [Label = "0.00"]
175--177  [Label = "0.00"]
177--176  [Label = "0.00"]
176--178  [Label = "0.00"]
178--179  [Label = "0.00"]
179--180  [Label = "0.00"]
180--181  [Label = "0.00"]
181--182  [Label = "0.00"]
182--183  [Label = "0.00"]
183--184  [Label = "0.00"]
184--185  [Label = "0.00"]
185--187  [Label = "0.00"]
187--186  [Label = "0.00"]
186--188  [Label = "0.00"]
188--191  [Label = "0.00"]
191--189  [Label = "0.00"]
189--190  [Label = "0.00"]
190--193  [Label = "0.00"]
193--192  [Label = "0.00"]
192--194  [Label = "0.00"]
194--195  [Label = "0.00"]
195--196  [Label = "0.00"]
196--197  [Label = "0.00"]
197--198  [Label = "0.00"]
198--199  [Label = "0.00"]
199--200  [Label = "0.00"]
200--201  [Label = "0.00"]
201--202  [Label = "0.00"]
202--203  [Label = "0.00"]
203--204  [Label = "0.00"]
204--205  [Label = "0.00"]
205--207  [Label = "0.00"]
207--206  [Label = "0.00"]
206--209  [Label = "0.00"]
209--208  [Label = "0.00"]
208--210  [Label = "0.00"]
210--211  [Label = "0.00"]
211--212  [Label = "0.00"]
212--213  [Label = "0.00"]
213--217  [Label = "0.00"]
217--214  [Label = "0.00"]
214--216  [Label = "0.00"]
216--215  [Label = "0.00"]
215--218  [Label = "0.00"]
218--219  [Label = "0.00"]
219--221  [Label = "0.00"]
221--220  [Label = "0.00"]
220--223  [Label = "0.00"]
223--222  [Label = "0.00"]
222--224  [Label = "0.00"]
224--225  [Label = "0.00"]
225--228  [Label = "0.00"]
228--229  [Label = "0.00"]
229--226  [Label = "0.00"]
226--227  [Label = "0.00"]
227--231  [Label = "0.00"]
231--230  [Label = "0.00"]
230--232  [Label = "0.00"]
232--233  [Label = "0.00"]
233--234  [Label = "0.00"]
234--235  [Label = "0.00"]
235--236  [Label = "0.00"]
236--237  [Label = "0.00"]
237--239  [Label = "0.00"]
239--238  [Label = "0.00"]
238--240  [Label = "0.00"]
240--241  [Label = "0.00"]
241--242  [Label = "0.00"]
242--244  [Label = "0.00"]
244--245  [Label = "0.00"]
245--246  [Label = "0.00"]
246--243  [Label = "0.00"]
243--247  [Label = "0.00"]
247--248  [Label = "0.00"]
248--250  [Label = "0.00"]
250--249  [Label = "0.00"]
249--251  [Label = "0.00"]
251--252  [Label = "0.00"]
252--258  [Label = "0.00"]
258--253  [Label = "0.00"]
253--254  [Label = "0.00"]
254--256  [Label = "0.00"]
256--255  [Label = "0.00"]
255--257  [Label = "0.00"]
257--259  [Label = "0.00"]
259--261  [Label = "0.00"]
261--262  [Label = "0.00"]
262--260  [Label = "0.00"]
260--263  [Label = "0.00"]
263--264  [Label = "0.00"]
264--265  [Label = "0.00"]
265--266  [Label = "0.00"]
266--267  [Label = "0.00"]
267--271  [Label = "0.00"]
271--269  [Label = "0.00"]
269--268  [Label = "0.00"]
268--270  [Label = "0.00"]
270--272  [Label = "0.00"]
272--273  [Label = "0.00"]
273--274  [Label = "0.00"]
274--275  [Label = "0.00"]
275--276  [Label = "0.00"]
276--277  [Label = "0.00"]
277--278  [Label = "0.00"]
278--279  [Label = "0.00"]
279--280  [Label = "0.00"]
280--281  [Label = "0.00"]
281--282  [Label = "0.00"]
282--283  [Label = "0.00"]
283--284  [Label = "0.00"]
284--287  [Label = "0.00"]
287--286  [Label = "0.00"]
286--285  [Label = "0.00"]
285--288  [Label = "0.00"]
288--289  [Label = "0.00"]
289--290  [Label = "0.00"]
290--291  [Label = "0.00"]
291--292  [Label = "0.00"]
292--293  [Label = "0.00"]
293--294  [Label = "0.00"]
294--295  [Label = "0.00"]
295--296  [Label = "0.00"]
296--297  [Label = "0.00"]
297--299  [Label = "0.00"]
299--301  [Label = "0.00"]
301--298  [Label = "0.00"]
298--300  [Label = "0.00"]
300--303  [Label = "0.00"]
303--302  [Label = "0.00"]
302--306  [Label = "0.00"]
306--308  [Label = "0.00"]
308--304  [Label = "0.00"]
304--305  [Label = "0.00"]
305--307  [Label = "0.00"]
307--310  [Label = "0.00"]
310--309  [Label = "0.00"]
309--311  [Label = "0.00"]
311--313  [Label = "0.00"]
313--314  [Label = "0.00"]
314--312  [Label = "0.00"]
312--315  [Label = "0.00"]
315--317  [Label = "0.00"]
317--318  [Label = "0.00"]
318--319  [Label = "0.00"]
319--322  [Label = "0.00"]
322--316  [Label = "0.00"]
316--320  [Label = "0.00"]
320--321  [Label = "0.00"]
321--323  [Label = "0.00"]
323--324  [Label = "0.00"]
324--325  [Label = "0.00"]
325--326  [Label = "0.00"]
326--327  [Label = "0.00"]
327--328  [Label = "0.00"]
328--329  [Label = "0.00"]
329--332  [Label = "0.00"]
332--330  [Label = "0.00"]
330--331  [Label = "0.00"]
331--333  [Label = "0.00"]
333--334  [Label = "0.00"]
334--335  [Label = "0.00"]
335--336  [Label = "0.00"]
336--337  [Label = "0.00"]
337--343  [Label = "0.00"]
343--339  [Label = "0.00"]
339--338  [Label = "0.00"]
338--341  [Label = "0.00"]
341--342  [Label = "0.00"]
342--340  [Label = "0.00"]
340--344  [Label = "0.00"]
344--345  [Label = "0.00"]
345--346  [Label = "0.00"]
346--347  [Label = "0.00"]
347--351  [Label = "0.00"]
351--348  [Label = "0.00"]
348--349  [Label = "0.00"]
349--354  [Label = "0.00"]
354--352  [Label = "0.00"]
352--355  [Label = "0.00"]
355--357  [Label = "0.00"]
357--350  [Label = "0.00"]
350--356  [Label = "0.00"]
356--359  [Label = "0.00"]
359--353  [Label = "0.00"]
353--358  [Label = "0.00"]
358--360  [Label = "0.00"]
360--362  [Label = "0.00"]
362--363  [Label = "0.00"]
363--361  [Label = "0.00"]
361--364  [Label = "0.00"]
364--372  [Label = "0.00"]
372--365  [Label = "0.00"]
365--366  [Label = "0.00"]
366--367  [Label = "0.00"]
367--369  [Label = "0.00"]
369--368  [Label = "0.00"]
368--371  [Label = "0.00"]
371--370  [Label = "0.00"]
370--373  [Label = "0.00"]
373--374  [Label = "0.00"]
374--375  [Label = "0.00"]
375--376  [Label = "0.00"]
376--377  [Label = "0.00"]
377--378  [Label = "0.00"]
378--379  [Label = "0.00"]
379--381  [Label = "0.00"]
381--380  [Label = "0.00"]
380--382  [Label = "0.00"]
382--383  [Label = "0.00"]
383--384  [Label = "0.00"]
384--386  [Label = "0.00"]
386--385  [Label = "0.00"]
385--387  [Label = "0.00"]
387--390  [Label = "0.00"]
390--389  [Label = "0.00"]
389--388  [Label = "0.00"]
388--395  [Label = "0.00"]
395--391  [Label = "0.00"]
391--392  [Label = "0.00"]
392--394  [Label = "0.00"]
394--393  [Label = "0.00"]
393--396  [Label = "0.00"]
396--397  [Label = "0.00"]
397--398  [Label = "0.00"]
398--399  [Label = "0.00"]
399--403  [Label = "0.00"]
403--400  [Label = "0.00"]
400--401  [Label = "0.00"]
401--404  [Label = "0.00"]
404--405  [Label = "0.00"]
405--402  [Label = "0.00"]
402--406  [Label = "0.00"]
406--408  [Label = "0.00"]
408--407  [Label = "0.00"]
407--410  [Label = "0.00"]
410--412  [Label = "0.00"]
412--409  [Label = "0.00"]
409--413  [Label = "0.00"]
413--414  [Label = "0.00"]
414--415  [Label = "0.00"]
415--411  [Label = "0.00"]
411--418  [Label = "0.00"]
418--416  [Label = "0.00"]
416--420  [Label = "0.00"]
420--419  [Label = "0.00"]
419--421  [Label = "0.00"]
421--422  [Label = "0.00"]
422--417  [Label = "0.00"]
417--423  [Label = "0.00"]
423--424  [Label = "0.00"]
424--426  [Label = "0.00"]
426--425  [Label = "0.00"]
425--427  [Label = "0.00"]
427--430  [Label = "0.00"]
430--428  [Label = "0.00"]
428--431  [Label = "0.00"]
431--429  [Label = "0.00"]
429--434  [Label = "0.00"]
434--432  [Label = "0.00"]
432--433  [Label = "0.00"]
433--441  [Label = "0.00"]
441--435  [Label = "0.00"]
435--436  [Label = "0.00"]
436--437  [Label = "0.00"]
437--438  [Label = "0.00"]
438--440  [Label = "0.00"]
440--439  [Label = "0.00"]
439--442  [Label = "0.00"]
442--443  [Label = "0.00"]
443--445  [Label = "0.00"]
445--444  [Label = "0.00"]
444--446  [Label = "0.00"]
446--447  [Label = "0.00"]
447--448  [Label = "0.00"]
448--450  [Label = "0.00"]
450--451  [Label = "0.00"]
451--452  [Label = "0.00"]
452--449  [Label = "0.00"]
449--453  [Label = "0.00"]
453--456  [Label = "0.00"]
456--454  [Label = "0.00"]
454--458  [Label = "0.00"]
458--455  [Label = "0.00"]
455--460  [Label = "0.00"]
460--457  [Label = "0.00"]
457--461  [Label = "0.00"]
461--459  [Label = "0.00"]
459--462  [Label = "0.00"]
462--463  [Label = "0.00"]
463--464  [Label = "0.00"]
464--465  [Label = "0.00"]
465--467  [Label = "0.00"]
467--466  [Label = "0.00"]
466--468  [Label = "0.00"]
468--470  [Label = "0.00"]
470--471  [Label = "0.00"]
471--472  [Label = "0.00"]
472--469  [Label = "0.00"]
469--473  [Label = "0.00"]
473--474  [Label = "0.00"]
474--475  [Label = "0.00"]
475--477  [Label = "0.00"]
477--476  [Label = "0.00"]
476--478  [Label = "0.00"]
478--479  [Label = "0.00"]
479--480  [Label = "0.00"]
480--481  [Label = "0.00"]
481--482  [Label = "0.00"]
482--484  [Label = "0.00"]
484--486  [Label = "0.00"]
486--483  [Label = "0.00"]
483--485  [Label = "0.00"]
485--487  [Label = "0.00"]
487--488  [Label = "0.00"]
488--489  [Label = "0.00"]
489--491  [Label = "0.00"]
491--490  [Label = "0.00"]
490--492  [Label = "0.00"]
492--493  [Label = "0.00"]
493--494  [Label = "0.00"]
494--495  [Label = "0.00"]
495--496  [Label = "0.00"]
496--499  [Label = "0.00"]
499--497  [Label = "0.00"]
495--498  [Label = "0.00"]
}
