graph 666{
0  [Label = "0 (0.00)"]
1  [Label = "1 (0.00)"]
2  [Label = "2 (0.00)"]
4  [Label = "4 (0.00)"]
3  [Label = "3 (0.00)"]
5  [Label = "5 (0.00)"]
6  [Label = "6 (0.00)"]
8  [Label = "8 (0.00)"]
7  [Label = "7 (0.00)"]
9  [Label = "9 (0.00)"]
10  [Label = "10 (0.00)"]
11  [Label = "11 (0.00)"]
12  [Label = "12 (0.00)"]
13  [Label = "13 (0.00)"]
14  [Label = "14 (0.00)"]
15  [Label = "15 (0.00)"]
16  [Label = "16 (0.00)"]
17  [Label = "17 (0.00)"]
18  [Label = "18 (0.00)"]
20  [Label = "20 (0.00)"]
21  [Label = "21 (0.00)"]
19  [Label = "19 (0.00)"]
22  [Label = "22 (0.00)"]
23  [Label = "23 (0.00)"]
24  [Label = "24 (0.00)"]
25  [Label = "25 (0.00)"]
26  [Label = "26 (0.00)"]
28  [Label = "28 (0.00)"]
27  [Label = "27 (0.00)"]
29  [Label = "29 (0.00)"]
30  [Label = "30 (0.00)"]
32  [Label = "32 (0.00)"]
33  [Label = "33 (0.00)"]
31  [Label = "31 (0.00)"]
34  [Label = "34 (0.00)"]
35  [Label = "35 (0.00)"]
36  [Label = "36 (0.00)"]
37  [Label = "37 (0.00)"]
39  [Label = "39 (0.00)"]
40  [Label = "40 (0.00)"]
38  [Label = "38 (0.00)"]
41  [Label = "41 (0.00)"]
42  [Label = "42 (0.00)"]
43  [Label = "43 (0.00)"]
44  [Label = "44 (0.00)"]
45  [Label = "45 (0.00)"]
46  [Label = "46 (0.00)"]
47  [Label = "47 (0.00)"]
48  [Label = "48 (0.00)"]
49  [Label = "49 (0.00)"]
51  [Label = "51 (0.00)"]
50  [Label = "50 (0.00)"]
52  [Label = "52 (0.00)"]
53  [Label = "53 (0.00)"]
54  [Label = "54 (0.00)"]
56  [Label = "56 (0.00)"]
57  [Label = "57 (0.00)"]
55  [Label = "55 (0.00)"]
58  [Label = "58 (0.00)"]
59  [Label = "59 (0.00)"]
60  [Label = "60 (0.00)"]
61  [Label = "61 (0.00)"]
62  [Label = "62 (0.00)"]
63  [Label = "63 (0.00)"]
65  [Label = "65 (0.00)"]
66  [Label = "66 (0.00)"]
64  [Label = "64 (0.00)"]
67  [Label = "67 (0.00)"]
68  [Label = "68 (0.00)"]
69  [Label = "69 (0.00)"]
70  [Label = "70 (0.00)"]
71  [Label = "71 (0.00)"]
73  [Label = "73 (0.00)"]
72  [Label = "72 (0.00)"]
74  [Label = "74 (0.00)"]
75  [Label = "75 (0.00)"]
77  [Label = "77 (0.00)"]
76  [Label = "76 (0.00)"]
80  [Label = "80 (0.00)"]
78  [Label = "78 (0.00)"]
79  [Label = "79 (0.00)"]
82  [Label = "82 (0.00)"]
81  [Label = "81 (0.00)"]
83  [Label = "83 (0.00)"]
84  [Label = "84 (0.00)"]
85  [Label = "85 (0.00)"]
88  [Label = "88 (0.00)"]
86  [Label = "86 (0.00)"]
89  [Label = "89 (0.00)"]
87  [Label = "87 (0.00)"]
90  [Label = "90 (0.00)"]
91  [Label = "91 (0.00)"]
92  [Label = "92 (0.00)"]
93  [Label = "93 (0.00)"]
94  [Label = "94 (0.00)"]
95  [Label = "95 (0.00)"]
97  [Label = "97 (0.00)"]
96  [Label = "96 (0.00)"]
99  [Label = "99 (0.00)"]
98  [Label = "98 (0.00)"]

0--1  [Label = "0.00"]
1--2  [Label = "0.00"]
2--4  [Label = "0.00"]
4--3  [Label = "0.00"]
3--5  [Label = "0.00"]
5--6  [Label = "0.00"]
6--8  [Label = "0.00"]
8--7  [Label = "0.00"]
7--9  [Label = "0.00"]
9--10  [Label = "0.00"]
10--11  [Label = "0.00"]
11--12  [Label = "0.00"]
12--13  [Label = "0.00"]
13--14  [Label = "0.00"]
14--15  [Label = "0.00"]
15--16  [Label = "0.00"]
16--17  [Label = "0.00"]
17--18  [Label = "0.00"]
18--20  [Label = "0.00"]
20--21  [Label = "0.00"]
21--19  [Label = "0.00"]
19--22  [Label = "0.00"]
22--23  [Label = "0.00"]
23--24  [Label = "0.00"]
24--25  [Label = "0.00"]
25--26  [Label = "0.00"]
26--28  [Label = "0.00"]
28--27  [Label = "0.00"]
27--29  [Label = "0.00"]
29--30  [Label = "0.00"]
30--32  [Label = "0.00"]
32--33  [Label = "0.00"]
33--31  [Label = "0.00"]
31--34  [Label = "0.00"]
34--35  [Label = "0.00"]
35--36  [Label = "0.00"]
36--37  [Label = "0.00"]
37--39  [Label = "0.00"]
39--40  [Label = "0.00"]
40--38  [Label = "0.00"]
38--41  [Label = "0.00"]
41--42  [Label = "0.00"]
42--43  [Label = "0.00"]
43--44  [Label = "0.00"]
44--45  [Label = "0.00"]
45--46  [Label = "0.00"]
46--47  [Label = "0.00"]
47--48  [Label = "0.00"]
48--49  [Label = "0.00"]
49--51  [Label = "0.00"]
51--50  [Label = "0.00"]
50--52  [Label = "0.00"]
52--53  [Label = "0.00"]
53--54  [Label = "0.00"]
54--56  [Label = "0.00"]
56--57  [Label = "0.00"]
57--55  [Label = "0.00"]
55--58  [Label = "0.00"]
58--59  [Label = "0.00"]
59--60  [Label = "0.00"]
60--61  [Label = "0.00"]
61--62  [Label = "0.00"]
62--63  [Label = "0.00"]
63--65  [Label = "0.00"]
65--66  [Label = "0.00"]
66--64  [Label = "0.00"]
64--67  [Label = "0.00"]
67--68  [Label = "0.00"]
68--69  [Label = "0.00"]
69--70  [Label = "0.00"]
70--71  [Label = "0.00"]
71--73  [Label = "0.00"]
73--72  [Label = "0.00"]
72--74  [Label = "0.00"]
74--75  [Label = "0.00"]
75--77  [Label = "0.00"]
77--76  [Label = "0.00"]
76--80  [Label = "0.00"]
80--78  [Label = "0.00"]
78--79  [Label = "0.00"]
79--82  [Label = "0.00"]
82--81  [Label = "0.00"]
81--83  [Label = "0.00"]
83--84  [Label = "0.00"]
84--85  [Label = "0.00"]
85--88  [Label = "0.00"]
88--86  [Label = "0.00"]
86--89  [Label = "0.00"]
89--87  [Label = "0.00"]
87--90  [Label = "0.00"]
90--91  [Label = "0.00"]
91--92  [Label = "0.00"]
92--93  [Label = "0.00"]
93--94  [Label = "0.00"]
94--95  [Label = "0.00"]
95--97  [Label = "0.00"]
97--96  [Label = "0.00"]
96--99  [Label = "0.00"]
99--98  [Label = "0.00"]
}
